#
#--------------------------------------------------------------------------------
##freq                                                                            
NUME_ORDRE   FREQ        
           1  7.36276E+03
           2  7.49538E+03
           3  7.61397E+03
           4  1.11098E+04
           5  1.16344E+04
           6  1.18334E+04
           7  1.30981E+04
           8  1.33682E+04
           9  1.34630E+04
          10  1.35096E+04

#
#--------------------------------------------------------------------------------
##ASTER 14.06.00 CONCEPT MassCgI CALCULE LE 01/12/2021 A 11:46:39 DE TYPE         
#TABLE_SDASTER                                                                   
LIEU                     ENTITE   MASSE        CDG_X        CDG_Y        CDG_Z        IX_G         IY_G         IZ_G         IXY_G        IXZ_G        IYZ_G        IX_PRIN_G    IY_PRIN_G    IZ_PRIN_G    ALPHA        BETA         GAMMA       
mesh                     TOUT      7.85000E+01  1.00000E-01  6.78421E-18  1.98885E-18  6.70521E-01  6.70521E-01  5.23333E-01 -6.84132E-17 -1.58944E-16  3.55618E-17  5.23333E-01  6.70521E-01  6.70521E-01  0.00000E+00 -9.00000E+01 -9.00000E+01

